R for Data Science
…
counties %>% group_by(region, subregion) %>% count() %>% group_by(subregion) %>% count() %>% arrange(desc(nn))

## # A tibble: 1,777 x 2
## # Groups:   subregion [1,777]
##    subregion     nn
##    <chr>      <int>
##  1 washington    32
##  2 jefferson     26
##  3 franklin      25
##  4 jackson       24
##  5 lincoln       24
##  6 madison       20
##  7 clay          18
##  8 montgomery    18
##  9 union         18
## 10 marion        17
## # ... with 1,767 more rows
…
